…
?as.Date

data %>%
  group_by(date,as.factor(weather_code)) %>%
  summarise(cnt)
## # A tibble: 17,414 × 3
## # Groups:   date, as.factor(weather_code) [2,654]
##    date       `as.factor(weather_code)`   cnt
##    <date>     <fct>                     <int>
##  1 2015-01-04 1                           138
##  2 2015-01-04 1                           134
##  3 2015-01-04 1                            72
##  4 2015-01-04 1                            47
##  5 2015-01-04 1                            46
##  6 2015-01-04 3                           182
##  7 2015-01-04 3                           301
##  8 2015-01-04 3                           528
##  9 2015-01-04 3                           727
## 10 2015-01-04 3                           916
## # ℹ 17,404 more rows
…
